<?xml version="1.0" encoding="utf-8"?>
<!-- Generator: Adobe Illustrator 20.0.0, SVG Export Plug-In . SVG Version: 6.00 Build 0)  -->
<svg version="1.1" id="Layer_1" xmlns="http://www.w3.org/2000/svg" xmlns:xlink="http://www.w3.org/1999/xlink" x="0px" y="0px"
	 viewBox="0 0 480 39" style="enable-background:new 0 0 480 39;" xml:space="preserve">
<style type="text/css">
	.st0{display:none;}
	.st1{display:inline;fill:#FFFFFF;}
	.st2{fill:#FFFFFF;}
</style>
<g id="Layer_1_1_" class="st0">
	<path class="st1" d="M480,0v39H0V0c44.9,19.3,135.5,22.5,240,22.5S435.1,19.3,480,0z"/>
</g>
<g id="Layer_2">
	<path class="st2" d="M480,24.9V41H0V24.9c78.8,8.8,158.8,13.4,240,13.4S401.2,33.7,480,24.9z"/>
</g>
</svg>
