<?xml version="1.0" encoding="utf-8"?>
<!-- Generator: Adobe Illustrator 22.0.1, SVG Export Plug-In . SVG Version: 6.00 Build 0)  -->
<svg version="1.1" xmlns="http://www.w3.org/2000/svg" xmlns:xlink="http://www.w3.org/1999/xlink" x="0px" y="0px"
	 viewBox="0 0 960 320" style="enable-background:new 0 0 960 320;" xml:space="preserve">
<style type="text/css">
	.st0{fill:#FFFFFF;}
</style>
<g id="Layer_2">
	<g>
		<g>
			<path class="st0" d="M239.2,148c2.3,1.4,3.4,3.7,3.4,6.8c0,1.8-0.3,3.7-1,5.9c-0.7,2.1-1.5,4.2-2.5,6.1c-0.9,2-1.9,3.8-2.8,5.5
				c-0.9,1.7-1.7,3.1-2.4,4.1l-0.9,0.9c-0.1,0.1-0.3,0.3-0.4,0.6c-0.3,0.5-0.4,0.8-0.6,0.9c-0.1,2.3-0.1,4.2,0.1,5.7
				c0.2,1.5,0.6,2.3,1.2,2.3c0.5,0,1.6-0.7,3.3-2.2c1.7-1.4,3.3-2.9,4.8-4.4c0.9-0.8,1.7-1.2,2.4-1.2c0.7-0.1,1.3,0.1,1.8,0.5
				c0.5,0.4,0.8,0.9,0.8,1.5c0.1,0.6-0.1,1.2-0.5,1.7c-3,3.3-5.6,5.6-7.6,7c-2.1,1.4-3.9,2.1-5.6,2.1c-1.8,0-3.1-0.5-4.1-1.6
				c-0.9-1.1-1.6-2.5-2-4.2c-1.5,1.8-3.2,3.5-5.2,5.2c-2,1.7-4,3-6,4.1c-2.1,1-4.2,1.6-6.2,1.8c-2.1,0.2-4.1-0.3-6.1-1.4
				c-3.1-1.9-4.7-5-4.7-9.4c0-3.6,1-7.7,3.1-12.3c2.1-4.5,4.6-8.6,7.5-12.3c1.3-1.5,2.8-3.1,4.7-4.9c1.9-1.8,3.9-3.4,6-4.9
				c2.1-1.5,4.3-2.7,6.6-3.7c2.3-0.9,4.5-1.4,6.6-1.4c2.4,0,4.4,0.5,6,1.5H239.2z M226,174.3c0-1.1,0.3-2.4,0.9-3.7
				c0.6-1.3,1.4-2.6,2.5-3.8c1-1.2,2.1-2.3,3.3-3.2c1.2-0.9,2.3-1.5,3.3-1.8c0.9-2.1,1.4-4.2,1.6-6.1c0.2-1.9-0.2-3.3-1.2-4.1
				c-1.4-1-3-1.1-4.8-0.4c-1.8,0.8-3.7,2-5.7,3.7c-2,1.7-3.8,3.6-5.6,5.7c-1.8,2.1-3.3,3.9-4.5,5.4c-0.9,1.3-2.1,3.1-3.7,5.6
				c-1.6,2.5-3,5-4.3,7.6c-1.3,2.6-2.3,5.1-2.8,7.5c-0.6,2.3-0.3,4,0.8,5c1.3,0.6,2.8,0.6,4.6-0.1c1.8-0.7,3.7-1.8,5.7-3.2
				c1.9-1.4,3.8-3.1,5.7-4.9c1.8-1.8,3.4-3.6,4.8-5.4c0-0.3-0.1-0.5-0.2-0.8C226.1,176.3,226,175.3,226,174.3z"/>
			<path class="st0" d="M243.9,184.1c-1.3,0.6-2.3,0.6-3-0.2c-0.8-0.8-0.8-1.8-0.2-3.2c3.1-3.4,6.4-7.3,9.7-11.7
				c3.3-4.4,6.5-8.7,9.5-13c0.6-0.6,1.2-1.4,1.6-2.3c0.4-0.9,0.7-1.9,0.8-3.2c-1.1-1.3-1.5-2.7-1.1-4.2c0.4-1.6,1-2.7,1.9-3.3
				c1.3-1.1,2.5-1.5,3.7-1.1c1.2,0.4,2,1.8,2.5,4.3c0,0.6,0,1,0.1,1c0.1,0.1,0,0.3-0.1,0.7c0.5,0.1,1,0.2,1.6,0.2c0.6,0,1.2,0,1.8,0
				c1.1,0,2.3,0,3.4,0.1c1.1,0.1,2.2,0.3,3.1,0.7c0.9,0.4,1.7,1,2.3,2s0.9,2.3,1,4.1c0.1,1.6-0.1,3.3-0.7,5s-1.3,3.4-2.2,5.1
				c-0.9,1.7-1.9,3.4-3.1,5.1c-1.2,1.7-2.4,3.4-3.7,5c-1.1,1.6-2.2,3.2-3.3,4.8c-1.1,1.6-2.1,3.2-3.1,5c-0.5,0.8-1,1.9-1.4,3.3
				c-0.4,1.4-0.1,2.4,1,2.9c1.1,0,2.5-0.5,4.2-1.5c1.6-1,3.3-2.2,4.9-3.7c1.6-1.4,3.2-2.9,4.7-4.3c1.5-1.4,2.8-2.7,3.8-3.7
				c1.4-0.6,2.6-0.4,3.6,0.6c1,1,1,2,0,3l-1.9,2.1c-1.3,1.4-2.7,2.8-4.3,4.3c-1.6,1.5-3.4,2.9-5.2,4.2c-1.8,1.3-3.7,2.4-5.5,3.1
				c-1.8,0.8-3.6,1-5.4,0.8c-2.6-0.5-4.6-1.9-5.9-4.2s-1.6-4.8-0.8-7.7c0.9-2.9,2.1-5.7,3.7-8.4c1.6-2.7,3.2-5.1,5-7.3
				c0.9-1.3,1.8-2.6,2.8-4.1c1-1.4,1.9-3,2.8-4.6l0.9-1.5c0.5-0.9,1-1.7,1.5-2.5c0.5-0.8,0.8-1.5,0.8-2c0-0.6-1.1-0.9-3.2-0.9h-1.9
				c-0.6,0-1.1,0-1.5,0.1c-0.4,0.1-0.9,0-1.5-0.1l-1.7,3h0.2l-1.9,3.2c-3,4-6.2,8.2-9.6,12.6c-3.4,4.4-6.7,8.4-10,12.1L243.9,184.1z
				"/>
			<path class="st0" d="M338.9,147.5c-2.9,4.4-5.9,9.2-9,14.3c-3.1,5.1-6,9.8-8.8,14.3c-1.1,1.9-2.1,3.5-2.9,4.9
				c-0.8,1.4-1.6,2.7-2.4,4c-0.8,1.3-1.6,2.6-2.5,4c-0.9,1.4-1.9,3-3,4.9c4.5-2.3,8.9-4.8,13.2-7.6c4.3-2.8,8.1-6.2,11.3-10.1
				c1.5-0.5,2.6-0.3,3.2,0.6c0.6,0.9,0.7,1.9,0.2,3c-3.7,4.8-8.4,8.9-14.3,12.3s-12.1,6.6-18.6,9.6c-5.5,8.9-11.1,17.6-16.6,26
				c-5.5,8.4-11.2,16.8-17,25.1c-0.9,1.1-2.1,2.5-3.6,4.2c-1.5,1.6-3.2,3.2-5,4.8c-1.8,1.6-3.8,2.9-5.9,4c-2.1,1.1-4.1,1.6-5.9,1.6
				c-2.8,0-5.1-0.9-7-2.8c-2.6-3-4-6.4-4-10c0-4.7,2-9.6,5.9-14.7c4-5.2,8.8-10.2,14.5-15c5.7-4.8,11.8-9.3,18.1-13.5
				c6.4-4.2,12-7.6,16.9-10.2c0.5-0.6,1-1.4,1.5-2.4c0.5-0.9,0.9-1.7,1.3-2.4c0.5-1,0.7-1.5,0.7-1.6c-0.1-0.1-0.2,0-0.3,0.3
				c0-0.1,0.2-0.4,0.8-0.9c-2.3,1.4-4.6,2.3-6.9,2.7c-2.3,0.4-4.6,0-6.9-1.2c-1.9-1-3.2-2.4-4-4.1c-0.8-1.7-1.1-3.6-1.1-5.6
				c0-3.6,1-7.7,3.1-12.2c2.1-4.5,4.6-8.5,7.5-12.2c1.5-1.9,3.5-3.9,5.9-6.1c2.5-2.2,5.1-4.1,7.8-5.7c2.8-1.6,5.6-2.6,8.5-3.1
				c2.9-0.5,5.5,0,7.9,1.5h-0.2c1.6,1,2.8,2.3,3.4,4c0.6-1,1.2-2,1.8-2.9s1.1-1.9,1.6-2.7L338.9,147.5z M264.7,248.5
				c2.5-3.5,4.8-6.8,7-9.8c2.1-3,4.2-6.1,6.3-9.2c2.1-3.1,4.2-6.3,6.2-9.5c2.1-3.3,4.3-6.9,6.7-10.8c-4.8,2.9-9.8,6.2-15,9.8
				c-5.2,3.6-10.1,7.5-14.5,11.6c-4.5,4.1-8.1,8.2-11,12.4c-2.9,4.2-4.3,8.1-4.3,11.9c0,1.9,0.4,3.6,1.3,5.3c1,1.9,2.3,2.5,4,1.9
				c1.6-0.6,3.3-1.8,5.1-3.4c1.8-1.6,3.4-3.5,4.9-5.6C262.8,251,263.9,249.5,264.7,248.5z M288.7,191.6c1.5,1,3.4,0.9,5.6-0.2
				c2.2-1.1,4.4-2.7,6.7-4.6c2.3-1.9,4.4-4.1,6.3-6.5c1.9-2.4,3.4-4.3,4.4-5.9c0.6-1,1.4-2.2,2.2-3.5c0.8-1.3,1.5-2.5,2.2-3.5
				l1.7-2.8v0.2c1.3-2.5,2.1-5,2.6-7.5c0.5-2.5,0.1-4.3-1.3-5.5c-1.4-0.8-3-0.8-4.9,0c-1.9,0.8-3.8,1.9-5.7,3.5
				c-1.9,1.6-3.7,3.4-5.5,5.4c-1.8,2-3.2,3.8-4.3,5.3c-1,1.4-2.3,3.3-4,5.8c-1.6,2.5-3.1,5-4.4,7.6s-2.2,5.1-2.7,7.5
				C287,189.2,287.4,190.8,288.7,191.6z"/>
			<path class="st0" d="M371.1,148c2.3,1.4,3.4,3.7,3.4,6.8c0,1.8-0.3,3.7-1,5.9c-0.7,2.1-1.5,4.2-2.5,6.1c-0.9,2-1.9,3.8-2.8,5.5
				c-0.9,1.7-1.7,3.1-2.4,4.1l-0.9,0.9c-0.1,0.1-0.3,0.3-0.4,0.6c-0.3,0.5-0.4,0.8-0.6,0.9c-0.1,2.3-0.1,4.2,0.1,5.7
				c0.2,1.5,0.6,2.3,1.2,2.3c0.5,0,1.6-0.7,3.3-2.2c1.7-1.4,3.3-2.9,4.8-4.4c0.9-0.8,1.7-1.2,2.4-1.2c0.7-0.1,1.3,0.1,1.8,0.5
				c0.5,0.4,0.8,0.9,0.8,1.5c0.1,0.6-0.1,1.2-0.5,1.7c-3,3.3-5.6,5.6-7.6,7c-2.1,1.4-3.9,2.1-5.6,2.1c-1.8,0-3.1-0.5-4.1-1.6
				c-0.9-1.1-1.6-2.5-2-4.2c-1.5,1.8-3.2,3.5-5.2,5.2c-2,1.7-4,3-6,4.1c-2.1,1-4.2,1.6-6.2,1.8c-2.1,0.2-4.1-0.3-6.1-1.4
				c-3.1-1.9-4.7-5-4.7-9.4c0-3.6,1-7.7,3.1-12.3c2.1-4.5,4.6-8.6,7.5-12.3c1.3-1.5,2.8-3.1,4.7-4.9c1.9-1.8,3.9-3.4,6-4.9
				c2.1-1.5,4.3-2.7,6.6-3.7c2.3-0.9,4.5-1.4,6.6-1.4c2.4,0,4.4,0.5,6,1.5H371.1z M357.9,174.3c0-1.1,0.3-2.4,0.9-3.7
				c0.6-1.3,1.4-2.6,2.5-3.8c1-1.2,2.1-2.3,3.3-3.2c1.2-0.9,2.3-1.5,3.3-1.8c0.9-2.1,1.4-4.2,1.6-6.1c0.2-1.9-0.2-3.3-1.2-4.1
				c-1.4-1-3-1.1-4.8-0.4c-1.8,0.8-3.7,2-5.7,3.7c-2,1.7-3.8,3.6-5.6,5.7c-1.8,2.1-3.3,3.9-4.5,5.4c-0.9,1.3-2.1,3.1-3.7,5.6
				c-1.6,2.5-3,5-4.3,7.6c-1.3,2.6-2.3,5.1-2.8,7.5c-0.6,2.3-0.3,4,0.8,5c1.3,0.6,2.8,0.6,4.6-0.1c1.8-0.7,3.7-1.8,5.7-3.2
				c1.9-1.4,3.8-3.1,5.7-4.9c1.8-1.8,3.4-3.6,4.8-5.4c0-0.3-0.1-0.5-0.2-0.8C358.1,176.3,357.9,175.3,357.9,174.3z"/>
			<path class="st0" d="M432.3,101.2c-0.6,1-1.6,2.5-2.8,4.6c-1.3,2.1-2.4,3.9-3.4,5.6c-0.5,0.8-0.8,1.2-0.8,1.2
				c-0.1,0.1-0.1,0.1,0,0.1c0.1,0,0.1,0.1,0,0.2c-0.1,0.1-0.3,0.6-0.8,1.3h13.8l-4.2,4.5h-12.6L403,147.5c-2.5,3.9-5,7.8-7.5,11.6
				c-2.5,3.8-4.7,7.4-6.8,10.8c-2.1,3.3-3.9,6.4-5.6,9.2c-1.6,2.8-2.9,5-3.8,6.6c-0.6,1.5-0.6,2.8,0,3.9c0.6,1.1,1.8,1.4,3.6,0.8
				c2.5-0.6,5.2-2.1,8.1-4.5c2.9-2.4,5.2-4.5,6.8-6.4c0.8-0.8,1.6-1.2,2.5-1.3c0.9-0.1,1.6,0,2.1,0.4c0.5,0.4,0.8,0.9,0.8,1.6
				c0,0.7-0.4,1.5-1.3,2.4l0.4-0.2c-2.1,2.5-4.8,5.1-8.1,7.6c-3.3,2.6-6.4,4.4-9.4,5.4c-2.3,0.6-4.3,0.7-6.2,0.2
				c-1.9-0.5-3.5-1.4-4.7-2.5c-1.3-1.2-2.1-2.6-2.6-4.2c-0.5-1.6-0.4-3.3,0.2-4.9c1.1-2.5,3.3-6.4,6.4-11.8
				c3.1-5.3,6.7-11.3,10.8-17.8c4-6.5,8.2-13.2,12.5-19.9c4.3-6.7,8.1-12.7,11.5-18c2.9-4.4,5-7.7,6.2-9.8c1.3-2.1,2.3-3.9,3-5.3
				L432.3,101.2z"/>
			<path class="st0" d="M456.3,101.2c-0.6,1-1.6,2.5-2.8,4.6c-1.3,2.1-2.4,3.9-3.4,5.6c-0.5,0.8-0.8,1.2-0.8,1.2
				c-0.1,0.1-0.1,0.1,0,0.1c0.1,0,0.1,0.1,0,0.2c-0.1,0.1-0.3,0.6-0.8,1.3h13.8l-4.2,4.5h-12.6L427,147.5c-2.5,3.9-5,7.8-7.5,11.6
				c-2.5,3.8-4.7,7.4-6.8,10.8c-2.1,3.3-3.9,6.4-5.6,9.2c-1.6,2.8-2.9,5-3.8,6.6c-0.6,1.5-0.6,2.8,0,3.9c0.6,1.1,1.8,1.4,3.6,0.8
				c2.5-0.6,5.2-2.1,8.1-4.5c2.9-2.4,5.2-4.5,6.8-6.4c0.8-0.8,1.6-1.2,2.5-1.3c0.9-0.1,1.6,0,2.1,0.4c0.5,0.4,0.8,0.9,0.8,1.6
				c0,0.7-0.4,1.5-1.3,2.4l0.4-0.2c-2.1,2.5-4.8,5.1-8.1,7.6c-3.3,2.6-6.4,4.4-9.4,5.4c-2.3,0.6-4.3,0.7-6.2,0.2
				c-1.9-0.5-3.5-1.4-4.7-2.5c-1.3-1.2-2.1-2.6-2.6-4.2c-0.5-1.6-0.4-3.3,0.2-4.9c1.1-2.5,3.3-6.4,6.4-11.8
				c3.1-5.3,6.7-11.3,10.8-17.8c4-6.5,8.2-13.2,12.5-19.9c4.3-6.7,8.1-12.7,11.5-18c2.9-4.4,5-7.7,6.2-9.8c1.3-2.1,2.3-3.9,3-5.3
				L456.3,101.2z"/>
			<path class="st0" d="M460.2,179.4c0.8-0.8,1.5-1.2,2.3-1.2c0.8-0.1,1.4,0.1,1.8,0.5c0.4,0.4,0.7,0.9,0.8,1.6
				c0.1,0.7-0.2,1.4-0.7,2c-1.8,2.1-3.8,4.2-6,6.1c-2.3,2-4.8,3.7-7.5,5.1c-2.8,1.4-5.7,2.6-8.7,3.4c-3,0.8-6,1.1-9.1,0.8
				c-1.6-0.1-3.2-0.4-4.7-0.9c-1.5-0.5-2.9-1.2-4.1-2.1c-1.2-0.9-2.2-2-2.9-3.4c-0.8-1.4-1.1-3.1-1.1-5.1c0-4,0.8-8,2.5-12
				c1.6-4,3.7-7.8,6.2-11.4c1.5-1.9,3.2-3.8,5.1-5.9c1.9-2,4-3.8,6.2-5.4c2.3-1.6,4.7-2.9,7.2-3.9c2.5-1,5.2-1.5,8.1-1.5
				c2.6,0,4.8,1,6.5,3c1.7,2,2.2,4.7,1.6,7.9c-0.9,3.3-2.5,5.9-4.9,8c-2.4,2.1-5.1,3.7-8.1,5c-3,1.3-6.2,2.2-9.4,2.8
				c-3.3,0.6-6.2,1.1-8.9,1.3c-2.1,3.9-3.2,7.5-3.2,10.8c0,4.7,1.7,7.3,5.1,7.9c2.4,0.4,4.8,0.2,7.4-0.5c2.5-0.7,4.9-1.7,7.2-3
				s4.4-2.9,6.3-4.6c1.9-1.8,3.6-3.5,5-5.3L460.2,179.4z M435.5,168.8c2.3-0.3,4.7-0.7,7.2-1.2c2.5-0.6,4.9-1.4,7.1-2.5
				c2.2-1.1,4.1-2.4,5.7-4.1c1.6-1.6,2.6-3.6,3.1-6c0.4-1.4,0.1-2.4-0.8-2.9c-0.9-0.6-1.8-0.8-2.8-0.8c-1.9,0-3.7,0.5-5.4,1.5
				c-1.7,1-3.3,2.3-4.9,3.9c-1.6,1.6-3,3.3-4.3,5.2s-2.5,3.7-3.7,5.5L435.5,168.8z"/>
			<path class="st0" d="M476.5,150.9c-0.4-0.8-0.4-1.4-0.1-1.9c0.3-0.5,0.8-0.9,1.4-1.2c0.6-0.3,1.3-0.5,2-0.6
				c0.7-0.1,1.2,0.1,1.6,0.5c2,1.3,3,3.1,3,5.7c0,0.6,0,1.2,0,1.6c0,0.4-0.1,1-0.4,1.6c4-3.8,8-6.8,11.8-9c3.8-2.2,7-2.7,9.5-1.4
				l-0.2-0.2c2.3,0.8,3.8,1.8,4.6,3.2c0.8,1.4,1.2,2.9,1.2,4.5c0,2.5-0.8,5.1-2.4,7.8c-1.6,2.7-3.1,5.1-4.6,7.1l-4,5.9
				c-1.1,1.8-2.3,3.5-3.5,5.3c-1.2,1.8-2.4,3.8-3.7,6.2c-0.8,1.6-0.8,2.9,0,3.9c0.8,0.9,2,1.1,3.8,0.5c2.5-0.8,5.2-2.2,7.9-4.3
				c2.8-2.1,5-4.2,6.8-6.2c0.3-0.3,0.7-0.4,1.3-0.4c0.6,0,1.3,0.1,1.9,0.4c0.6,0.3,1.1,0.6,1.5,0.9c0.4,0.4,0.4,0.8,0.2,1.3
				c-0.9,1.1-2,2.3-3.5,3.6c-1.4,1.3-3,2.5-4.6,3.7c-1.6,1.2-3.3,2.3-5,3.3c-1.7,1-3.3,1.8-4.8,2.5c-2.5,1.1-4.9,1.5-7.1,1.2
				c-2.2-0.3-4-1.1-5.4-2.3c-1.4-1.2-2.3-2.7-2.6-4.5c-0.4-1.8,0-3.7,1.1-5.8c1.8-3.1,3.6-6.3,5.5-9.3c1.9-3.1,4-6.2,6.2-9.3
				c0.4-0.6,1.1-1.7,2.1-3.1c1-1.4,1.9-3,2.7-4.6c0.8-1.6,1.5-3.1,2-4.3c0.5-1.3,0.5-2,0-2.3c-1.1-0.6-2.8-0.3-5.1,1
				c-2.3,1.3-4.8,3.2-7.5,5.7c-2.8,2.5-5.7,5.2-8.7,8.3c-3,3.1-5.9,6-8.5,8.8l0.2-0.2c-2,3.3-4.1,6.5-6.1,9.7c-2.1,3.2-4.8,7-8,11.4
				l-10.8,0.2c1.6-2.1,3.6-4.8,5.8-7.9c2.2-3.1,4.1-5.9,5.8-8.3c1.6-2.3,3.3-4.7,4.9-7.3c1.6-2.6,3.3-4.9,5.1-7.1
				c0.4-0.5,1-1.4,1.9-2.8c0.9-1.4,1.7-2.8,2.5-4.2c0.8-1.4,1.4-2.8,1.9-4.2C476.6,152.5,476.7,151.5,476.5,150.9z"/>
		</g>
		<g>
			<path class="st0" d="M313.3,237.8c0-1.9,0.3-3.6,0.8-5.3c0.6-1.6,1.3-3.1,2.4-4.3s2.3-2.2,3.9-2.9c1.5-0.7,3.2-1,5.2-1
				c1.5,0,2.8,0.2,3.9,0.6c1.1,0.4,2,0.9,2.8,1.5c0.8,0.6,1.4,1.2,1.9,1.9c0.5,0.7,0.8,1.4,1.1,2c0.3,0.6,0.4,1.1,0.5,1.6
				c0.1,0.4,0.1,0.7,0.1,0.7h-1.6c-0.2-1.1-0.5-2-1-2.9c-0.5-0.9-1.2-1.6-2-2.2c-0.8-0.6-1.7-1.1-2.6-1.4c-1-0.3-2-0.5-3.1-0.5
				c-1.7,0-3.2,0.3-4.5,1c-1.3,0.6-2.4,1.5-3.3,2.6c-0.9,1.1-1.6,2.4-2.1,3.8c-0.5,1.5-0.7,3-0.7,4.7c0,1.7,0.2,3.2,0.7,4.7
				s1.2,2.7,2.1,3.8c0.9,1.1,2,2,3.3,2.6c1.3,0.6,2.8,1,4.5,1c1.2,0,2.4-0.3,3.5-0.8c1.1-0.5,2-1.2,2.9-2.1c0.8-0.9,1.5-1.8,2-3
				c0.5-1.1,0.8-2.3,0.8-3.5h1.6c-0.1,1.5-0.5,3-1.1,4.2s-1.4,2.4-2.3,3.4c-0.9,0.9-2,1.7-3.3,2.2c-1.2,0.5-2.6,0.8-4,0.8
				c-1.9,0-3.6-0.3-5.2-1c-1.5-0.7-2.8-1.7-3.9-2.9s-1.8-2.6-2.4-4.3C313.6,241.4,313.3,239.7,313.3,237.8z"/>
			<path class="st0" d="M349,224.9h17.3v1.4h-15.7v10.3h14.8v1.4h-14.8v11.3h15.9v1.4H349V224.9z"/>
			<path class="st0" d="M378.5,224.9h1.6v24.3h14.6v1.4h-16.2V224.9z"/>
			<path class="st0" d="M405.9,224.9h1.6v24.3H422v1.4h-16.2V224.9z"/>
			<path class="st0" d="M440.8,224.9h1.7l10.2,25.7H451l-3.2-8.2h-12.3l-3.3,8.2h-1.7L440.8,224.9z M447.3,241l-5.5-14.5h-0.1
				L436,241H447.3z"/>
			<path class="st0" d="M463.9,224.9h10.7c1.1,0,2.2,0.1,3.2,0.3c1,0.2,1.8,0.6,2.6,1.1c0.7,0.5,1.3,1.2,1.7,2s0.6,1.9,0.6,3.1
				c0,1.7-0.5,3.2-1.5,4.4c-1,1.2-2.3,1.9-4,2.2v0.1c1.2,0.1,2.1,0.5,2.8,0.9c0.7,0.5,1.2,1.1,1.5,1.8c0.3,0.7,0.6,1.5,0.6,2.3
				c0.1,0.8,0.1,1.7,0.1,2.5c0,0.5,0,1,0,1.5c0,0.5,0,0.9,0.1,1.3c0,0.4,0.1,0.8,0.2,1.2c0.1,0.4,0.3,0.7,0.5,0.9h-1.8
				c-0.3-0.6-0.5-1.3-0.6-2.1c0-0.8-0.1-1.6-0.1-2.5c0-0.9,0-1.7-0.1-2.6s-0.3-1.6-0.7-2.3c-0.4-0.7-1-1.2-1.8-1.6s-2-0.6-3.5-0.6
				h-9.1v11.7h-1.6V224.9z M474.6,237.6c0.9,0,1.8-0.1,2.6-0.3c0.8-0.2,1.5-0.6,2.1-1.1s1-1.1,1.4-1.8s0.5-1.6,0.5-2.7
				c0-1-0.2-1.8-0.5-2.5c-0.4-0.7-0.8-1.2-1.4-1.7c-0.6-0.4-1.3-0.7-2.1-0.9s-1.6-0.3-2.5-0.3h-9.1v11.3H474.6z"/>
			<path class="st0" d="M512.7,232.3c0-1.1-0.3-2.1-0.7-2.9c-0.4-0.8-1-1.5-1.7-2.1c-0.7-0.6-1.6-1-2.6-1.2c-1-0.3-2.1-0.4-3.3-0.4
				c-0.7,0-1.5,0.1-2.3,0.3c-0.8,0.2-1.6,0.5-2.3,0.9c-0.7,0.4-1.3,1-1.7,1.7s-0.7,1.6-0.7,2.6c0,1,0.3,1.9,0.8,2.5
				c0.5,0.6,1.2,1.2,2,1.6c0.8,0.4,1.8,0.7,2.8,1c1.1,0.2,2.1,0.5,3.2,0.7c1.1,0.2,2.2,0.5,3.2,0.8s2,0.7,2.8,1.2
				c0.8,0.5,1.5,1.2,2,2c0.5,0.8,0.8,1.9,0.8,3.1c0,1.3-0.3,2.5-0.9,3.4c-0.6,0.9-1.3,1.7-2.2,2.2c-0.9,0.6-1.8,1-2.9,1.2
				c-1.1,0.3-2.1,0.4-3.1,0.4c-1.5,0-2.9-0.2-4.2-0.5c-1.3-0.3-2.5-0.9-3.5-1.6c-1-0.7-1.8-1.7-2.3-2.8c-0.6-1.2-0.8-2.6-0.8-4.2
				h1.6c-0.1,1.4,0.1,2.6,0.6,3.6s1.1,1.8,2,2.4s1.9,1.1,3,1.3c1.2,0.3,2.4,0.4,3.6,0.4c0.8,0,1.6-0.1,2.5-0.3
				c0.9-0.2,1.7-0.5,2.4-1c0.7-0.5,1.3-1.1,1.8-1.8c0.5-0.7,0.7-1.7,0.7-2.8c0-1.1-0.3-2-0.8-2.6c-0.5-0.7-1.2-1.2-2-1.7
				c-0.8-0.4-1.8-0.8-2.8-1s-2.1-0.5-3.2-0.7c-1.1-0.2-2.1-0.5-3.2-0.8c-1.1-0.3-2-0.7-2.8-1.2c-0.8-0.5-1.5-1.1-2-1.9
				s-0.8-1.8-0.8-3c0-1.2,0.3-2.3,0.8-3.2c0.5-0.9,1.2-1.6,2-2.1s1.8-0.9,2.8-1.2c1-0.3,2.1-0.4,3.1-0.4c1.3,0,2.6,0.2,3.8,0.5
				c1.2,0.3,2.2,0.8,3.1,1.4s1.6,1.5,2.1,2.5c0.5,1,0.8,2.2,0.9,3.6H512.7z"/>
		</g>
	</g>
</g>
<g id="Layer_3">
	<g>
		<path class="st0" d="M238.1,270.7c0.4,0.4,0.8,0.7,1.2,1.1c-23,16.4-50.5,25.2-79.3,25.2c-36.6,0-71-14.2-96.9-40.1
			c-0.4-0.4-0.8-0.8-1.2-1.2c5.5-1,10.6-2.4,15.2-4.2c1.2-0.5,2.3-0.9,3.5-1.4c21.9,19.3,49.8,29.9,79.3,29.9
			c26.2,0,51-8.3,71.6-23.7c0.4,5.1,2.5,9.8,6.1,13.9C237.9,270.4,238,270.5,238.1,270.7z"/>
		<path class="st0" d="M282.7,140.4c-1.4-0.5-2.9-0.9-4.4-1.1c-2.9-16.6-9.2-32.3-18.6-46.2c6.3-0.4,12.3-1.5,18-3.3
			c10,16.8,16.3,35.5,18.5,55.2c-1.6,1.1-3.1,2.4-4.6,3.7c-0.3,0.3-0.6,0.5-0.9,0.8c-0.4-1.2-0.8-2.3-1.4-3.3
			C287.7,143.5,285.4,141.5,282.7,140.4z"/>
		<path class="st0" d="M256.9,63.1C231,37.3,196.6,23,160,23S89,37.3,63.1,63.1C37.3,89,23,123.4,23,160c0,17.6,3.3,34.7,9.6,50.6
			c0.3-0.1,0.5-0.2,0.8-0.4l1.2-0.4c0.9-0.2,1.9-0.3,2.9-0.3c0.5,0,0.9,0,1.4,0.1c2.4,0.2,4.7,1.4,7,3.7l-0.1,0.1
			c1.2,1.2,2.4,3.1,2.8,6c0.4,2.9,0,5.3-1.2,7.3c-0.8,1.9-2.1,3.5-3.6,4.9c-0.1,0.1-0.3,0.2-0.4,0.4c1.4,2.2,2.8,4.4,4.3,6.5
			c1.2,0.2,2.5,0.4,3.8,0.4c0.5,0,1,0,1.5,0c2.8-0.3,5.9-0.9,9.1-1.7c1.6-0.4,3.2-0.9,4.7-1.4C49.4,214.3,40,187.9,40,160
			c0-32.1,12.5-62.2,35.2-84.9C97.8,52.5,127.9,40,160,40c28.6,0,55.7,9.9,77.3,28.2c2,1.7,3.9,3.4,5.8,5.2c0.6,0.6,1.2,1.2,1.8,1.8
			c0.1,0.1,0.1,0.1,0.2,0.2c0.6,0,1.2,0,1.7,0.1c3.8,0.2,7,0.2,9.7,0.2c3.6-0.1,7.1-0.5,10.6-1.2C263.8,70.5,260.5,66.7,256.9,63.1z
			"/>
		<g>
			<path class="st0" d="M132.2,112.5c1-1.3,2.3-1.8,4-1.4c1.7,0.3,2.4,1.6,2,3.8c-0.8,5.1-2.2,10.3-4.1,15.5
				c-1.9,5.2-4.6,9.9-7.9,14c-3.4,4.2-7.4,7.5-12.2,10.1c-4.8,2.6-10.4,3.8-16.8,3.8c-5.4,0-10.2-1-14.4-3.1
				c-4.2-2.1-7.6-4.9-10.2-8.4c-2.6-3.5-4.5-7.6-5.5-12.2c-1-4.6-1.2-9.6-0.4-14.9c1.4-9.1,5-16.6,10.7-22.4
				C83,91.4,90,86.8,98.4,83.4s17.8-5.7,28.3-7c10.5-1.3,21.2-1.9,32.3-1.9c11.2,0,22.2,0.5,33,1.4c10.8,1,20.8,1.8,30.1,2.6
				l4.3-1.9l-0.2,0.2l7.7-3.4c1.9-0.3,3.2,0.3,3.8,1.8c0.6,1.5,0.1,2.8-1.7,3.7l-2.4,1.2c4.6,0.3,8.9,0.6,12.8,0.7
				c3.9,0.2,7.2,0.2,10,0.2c6.2-0.2,12.2-1.2,17.9-3c5.7-1.8,10.9-5,15.7-9.5c0.3-0.2,0.8-0.1,1.3,0.2c0.6,0.3,1.1,0.7,1.7,1.2
				c0.6,0.5,1,1,1.3,1.7c0.3,0.6,0.3,1,0,1.2c-5.1,5.1-10.9,8.8-17.3,10.9c-6.4,2.2-13.2,3.3-20.4,3.5c-2.4,0.2-5.3,0.1-8.6-0.1
				c-3.4-0.2-7-0.6-11-1.1l-13.4-1.4c-5.6,2.9-10.8,6-15.7,9.2c-4.9,3.3-9.5,6.9-13.8,10.8c-4.3,3.9-8.4,8.2-12.4,12.8
				c-3.9,4.6-7.7,9.8-11.4,15.4c-2.2,3.2-4.4,6.6-6.6,10.2c-2.2,3.6-4.4,7.4-6.6,11.4v-0.2c-0.3,0.6-0.4,0.8-0.2,0.5
				c0.2-0.3,0.1-0.2-0.2,0.5c5.1,0,9.6-0.5,13.4-1.6c3.8-1,7.3-3.6,10.3-7.8c0.8-0.8,1.6-1.2,2.3-1.1c0.7,0.1,1.4,0.4,1.9,1.1
				c0.6,0.6,0.9,1.4,1.1,2.2c0.2,0.8,0,1.4-0.5,1.9c-2.2,3-4.6,5.4-7,7c-2.4,1.6-5,2.8-7.7,3.5c-2.7,0.7-5.6,1.1-8.5,1.2
				c-3,0.1-6,0.1-9,0.1c-0.5,0.8-1,1.7-1.4,2.6c-0.5,1-1,1.8-1.4,2.6c-3.7,6.6-7.5,13.2-11.5,19.8c-4,6.6-8.3,13-12.8,19.2
				c-4.6,6.2-9.4,11.9-14.5,17.2c-5.1,5.3-10.7,9.8-16.8,13.4c-6.4,3.8-12.8,7-19.3,9.5c-6.5,2.5-13.8,4.1-22,4.9
				c-3.5,0.3-7,0.1-10.6-0.7c-3.5-0.8-6.6-2.2-9.1-4.3h0.2c-2.7-2.1-4.8-4.6-6.2-7.6c-1.4-3-2.2-6-2.2-9c0-2.9,0.8-5.6,2.4-8
				c1.6-2.5,4.2-4.5,7.9-6.1c0.8-0.2,1.7-0.2,2.8-0.1c1,0.1,2.2,0.8,3.5,2l-1-0.5c1.1,0.5,1.8,1.6,2,3.4c0.2,1.8,0,3-0.6,3.8
				c-0.5,1.3-1.2,2.4-2.3,3.2c-1,0.9-2,1.7-2.8,2.5c-0.5,0.5-1,1.1-1.7,1.8c-0.6,0.7-1,1.2-1.2,1.6c0.5,4,2.6,7,6.4,8.9
				c3.8,1.9,8,2.7,12.6,2.4c3.2-0.3,6.6-1,10.1-1.9c3.5-1,7-2.1,10.3-3.5c3.4-1.4,6.5-2.8,9.4-4.4c2.9-1.6,5.3-3.2,7.2-4.8
				c5.1-4.2,9.5-9,13.2-14.4c3.7-5.4,7.3-11,10.8-16.8l1.7-2.2h-0.2c1.6-2.9,3.2-5.8,4.9-8.6c1.7-2.9,3.3-5.8,4.9-8.6
				c1.9-3.5,3.6-6.5,4.9-9c1.4-2.5,3-5.3,4.9-8.5c-4.2,0.3-7.9,1.3-11.3,2.9c-3.4,1.6-6.9,4.2-10.6,7.9c-1.1,1-2.4,1-3.8,0.2
				c-1.4-0.8-1.8-2.1-1-3.8c4.2-5.4,8.9-9,14.3-10.7c5.4-1.7,10.8-2.7,16.2-3c4.6-7.8,9.3-15.1,13.9-21.7
				c4.6-6.6,9.7-12.8,15.2-18.6c5.5-5.8,11.8-11.2,18.8-16.3c7-5.1,15.4-10.1,25-14.9c-8.3-0.8-17.2-1.6-26.5-2.3
				c-9.4-0.7-18.6-1.1-27.7-1.1c-10.1,0-19.8,0.6-29.3,1.8c-9.4,1.2-18,3.3-25.6,6.2c-7.6,3-14,7-19.3,12.2
				c-5.3,5.2-8.7,11.8-10.3,19.8c-0.5,2.4-0.7,4.6-0.7,6.7c0,3.5,0.6,6.8,1.7,9.8c1.1,3,2.7,5.7,4.8,7.9c2.1,2.2,4.6,4,7.6,5.3
				c3,1.3,6.4,1.9,10.2,1.9c5.3,0,9.9-1,13.8-3.1c3.9-2.1,7.3-4.9,10.1-8.4c2.8-3.5,5.1-7.6,6.8-12.4c1.8-4.7,3-9.6,3.8-14.8
				L132.2,112.5z"/>
		</g>
	</g>
</g>
</svg>
